<?xml version="1.0" encoding="utf-8"?>
<!-- Generator: Adobe Illustrator 20.1.0, SVG Export Plug-In . SVG Version: 6.00 Build 0)  -->
<svg version="1.1" id="Arrow_1_" xmlns="http://www.w3.org/2000/svg" xmlns:xlink="http://www.w3.org/1999/xlink" x="0px" y="0px"
	 viewBox="0 0 500 500" style="enable-background:new 0 0 500 500;" xml:space="preserve">
<style type="text/css">
	.st0{fill:#FFFFFF;}
</style>
<path class="st0" d="M29.8,279.8h368.8L287.8,390.5c-11.6,11.6-11.6,30.5,0,42c11.6,11.6,30.5,11.6,42,0L491.3,271
	c5.6-5.6,8.7-13.1,8.7-21.1c0-7.9-3.1-15.5-8.7-21.1L329.8,67.5c-5.8-5.8-13.4-8.7-21.1-8.7s-15.3,2.9-21.1,8.7
	c-11.6,11.6-11.6,30.5,0,42l110.8,110.8H29.8C13.4,220.3,0,233.7,0,250S13.3,279.8,29.8,279.8z"/>
</svg>
